{
  "games": [
      {
          "name": "Counter-Strike: Global Offensive 2",
          "is_free": true,
          "description": "Counter-Strike: Global Offensive (CS: GO) will expand upon the team-based action gameplay that it pioneered when it was launched 14 years ago.<br />\r\n<br />\r\nCS: GO features new maps, characters, and weapons and delivers updated versions of the classic CS content (de_dust2, etc.). In addition, CS: GO will introduce new gameplay modes, matchmaking, leader boards, and more.<br />\r\n<br />\r\n&quot;Counter-Strike took the gaming industry by surprise when the unlikely MOD became the most played online PC action game in the world almost immediately after its release in August 1999,&quot; said Doug Lombardi at Valve. &quot;For the past 12 years, it has continued to be one of the most-played games in the world, headline competitive gaming tournaments and selling over 25 million units worldwide across the franchise. CS: GO promises to expand on CS' award-winning gameplay and deliver it to gamers on the PC as well as the next gen consoles and the Mac.&quot;",
          "developers": [
              "Valve"
          ],
          "publishers": [
              "Valve"
          ],
          "platforms": {
              "windows": true,
              "mac": true,
              "linux": true
          },
          "genres": "Action",
          "release_date": "22 Aug, 2018",
          "price": {
              "amount": 1650000,
              "currency": "VND"
          }
      },
      {
          "name": "Counter-Strike: Source 5",
          "is_free": false,
          "description": "THE NEXT INSTALLMENT OF THE WORLD'S # 1 ONLINE ACTION GAME <br>Counter-Strike: Source blends Counter-Strike's award-winning teamplay action with the advanced technology of Source&trade; technology. Featuring state of the art graphics, all new sounds, and introducing physics, Counter-Strike: Source is a must-have for every action gamer.",
          "developers": [
              "Valve"
          ],
          "publishers": [
              "Valve"
          ],
          "platforms": {
              "windows": true,
              "mac": true,
              "linux": true
          },
          "genres": "Action",
          "release_date": "Nov 1, 2004",
          "price": {
              "amount": 1999,
              "currency": "USD"
          }
      },
      {
          "name": "Half-Life 4",
          "is_free": false,
          "description": "Named Game of the Year by over 50 publications, Valve's debut title blends action and adventure with award-winning technology to create a frighteningly realistic world where players must think to survive. Also includes an exciting multiplayer mode that allows you to play against friends and enemies around the world.",
          "developers": [
              "Valve"
          ],
          "publishers": [
              "Valve"
          ],
          "platforms": {
              "windows": true,
              "mac": true,
              "linux": true
          },
          "genres": "Action",
          "release_date": "9 Nov, 1998",
          "price": {
              "amount": 12000000,
              "currency": "VND"
          }
      },
      {
          "name": "Half-Life 3",
          "is_free": false,
          "description": "1997. HALF-LIFE sends a shock through the game industry with its combination of pounding action and continuous, immersive storytelling. Valve's debut title wins more than 50 game-of-the-year awards on its way to being named \"Best PC Game Ever\" by PC Gamer, and launches a franchise with more than eight million retail units sold worldwide.<br><br>\r\n\t\tNOW. By taking the suspense, challenge and visceral charge of the original, and adding startling new realism and responsiveness, Half-Life 2 opens the door to a world where the player's presence affects everything around him, from the physical environment to the behaviors even the emotions of both friends and enemies.<br><br>\r\n\t\tThe player again picks up the crowbar of research scientist Gordon Freeman, who finds himself on an alien-infested Earth being picked to the bone, its resources depleted, its populace dwindling. Freeman is thrust into the unenviable role of rescuing the world from the wrong he unleashed back at Black Mesa. And a lot of people he cares about are counting on him.<br><br>\r\n\t\tThe intense, real-time gameplay of Half-Life 2 is made possible only by Source&reg;, Valve's new proprietary engine technology. Source provides major enhancements in:<br><br>\r\n\t\t<ul>\r\n\t\t<li><span class=\"copyHead\">Characters:</span> Advanced facial animation system delivers the most sophisticated in-game characters ever seen. With 40 distinct facial \"muscles,\" human characters convey the full array of human emotion, and respond to the player with fluidity and intelligence.</li>\r\n\t\t<li><span class=\"copyHead\">Physics:</span> From pebbles to water to 2-ton trucks respond as expected, as they obey the laws of mass, friction, gravity, and buoyancy.</li>\r\n\t\t<li><span class=\"copyHead\">Graphics:</span> Source's shader-based renderer, like the one used at Pixar to create movies such as Toy Story&reg; and Monster's, Inc.&reg;, creates the most beautiful and realistic environments ever seen in a video game.</li>\r\n\t\t<li><span class=\"copyHead\">AI:</span> Neither friends nor enemies charge blindly into the fray. They can assess threats, navigate tricky terrain, and fashion weapons from whatever is at hand.</li>\r\n\t\t</ul>",
          "developers": [
              "Valve"
          ],
          "publishers": [
              "Valve"
          ],
          "platforms": {
              "windows": true,
              "mac": false,
              "linux": true
          },
          "genres": "Action",
          "release_date": "16 Nov, 2004",
          "price": {
              "amount": 1200000,
              "currency": "VND"
          }
      }
  ]
}